{ 
	"et": 
	{
		"rss_links": ["http://feeds.bbci.co.uk/news/world/rss.xml?edition=uk#"],
		"regex": "(ethiopia|addis ababa|ethioi|oromo|amhara|somali|tigray|sidama|gurage|welayta|hadiya|afar|gamo|gedeo)",
    		"track": ["ethiopia","addisababa","ethioi","oromo","amhara","somali","tigray","sidama","gurage","welayta","hadiya","afar","gamo","gedeo"],
		"log_file": "log/et_log.txt"
	},
	"so": 
	{
                "rss_links": ["http://feeds.bbci.co.uk/news/world/rss.xml?edition=uk#"],
                "regex": "(hassan sheikh mohamud|somalia|republic of somalia|somaliland|puntland|galmudug|jubalandkhaatumo|koonfurgalibeed|awdal|woqooyi galbeed|togdheer|sanaag|bari|nugal|mudug|galguduud|hiran|middle shebelle|banaadir|lower shebelle|bakool|bay|gedo|middle juba|lower juba)",
                "track": ["somalia","republic of somalia","somaliland","puntland","galmudug","jubalandkhaatumo","koonfurgalibeed","awdal","woqooyi galbeed","togdheer","sanaag","bari","nugal","mudug","galguduud","hiran","middle shebelle","banaadir","lower shebelle","bakool","bay","gedo","middle juba","lower juba"],
		"log_file": "log/so_log.txt"
        },
        "ss":
        {
                "rss_links": ["http://feeds.bbci.co.uk/news/world/rss.xml?edition=uk#"],
                "regex": "(south sudan|salva kiir mayardit|western nile|western bieh|southern liech|ruweng|northern liech|latjoor|jonglei|eastern nile|eastern bieh|boma|yei river|terekeka|namorunyang|maridi|jubek|imatong|gbudwe|amadi|western lakes|wau|twic|gogrial|eastern lakes|aweil east|aweil|bar el ghazal)",
                "track": ["south sudan","salva kiir mayardit","western nile","western bieh","southern liech","ruweng","northern liech","latjoor","jonglei","eastern nile","eastern bieh","boma","yei river","terekeka","namorunyang","maridi","jubek","imatong","gbudwe","amadi","western lakes","wau","twic","gogrial","eastern lakes","aweil east","aweil","bar el ghazal"],
                "log_file": "log/ss_log.txt"
        },
        "ly":
        {
                "rss_links": ["http://feeds.bbci.co.uk/news/world/rss.xml?edition=uk#"],
                "regex": "(al-sarraj|fayez al-sarraj|libya|zuara|zliten|zella|zawyat|zawaya|zawai|zahra|yefren|wodan|wadi|wadi|wadi|um|ubary|tripoli|tripoli|traghen|tomina|tolmitha|tigi|tawergha|tarhuna|taknes|taigura|swajni|suk|soussa|sokna|slenta|sirt|sidiessaiah|sidi|shahat|seluk|sebha|sabratha|rujban|reyana|ojla|noflia|nalut|murzuk|mizda|misuratha|misratah|matred|massa|mamura|kussabat|kofra|kikla|khums|kasarahmad|kabaw|kaalifa|jmail|jerdina|jardas|jalo|jaghbub|hun|hugialin|hashan|haraua|gubba|guassem|gmines|ghrefa|ghat|ghadames|garian|garda|ezzaonia|elmaya|elmareg|elmagrun|elkuwaifia|elbayada|el|edry|derna|deriana|dafnia|buzayan|bugrain|brak|bisher|bergen|benina|benghazi|ben|bani|azizia|al|ajailat|agelat|abuhadi|abu|abengawad)",
                "track": ["Fayez al-Sarraj","al-saraj","libya","zuara","zliten","zella","zawyat","zawaya","zawai","zahra","yefren","wodan","wadi","wadi","wadi","um","ubary","tripoli","tripoli","traghen","tomina","tolmitha","tigi","tawergha","tarhuna","taknes","taigura","swajni","suk","soussa","sokna","slenta","sirt","sidiessaiah","sidi","shahat","seluk","sebha","sabratha","rujban","reyana","ojla","noflia","nalut","murzuk","mizda","misuratha","misratah","matred","massa","mamura","kussabat","kofra","kikla","khums","kasarahmad","kabaw","kaalifa","jmail","jerdina","jardas","jalo","jaghbub","hun","hugialin","hashan","haraua","gubba","guassem","gmines","ghrefa","ghat","ghadames","garian","garda","ezzaonia","elmaya","elmareg","elmagrun","elkuwaifia","elbayada","el","edry","derna","deriana","dafnia","buzayan","bugrain","brak","bisher","bergen","benina","benghazi","ben","bani","azizia","al","ajailat","agelat","abuhadi","abu","abengawad"],
                "log_file": "log/ly_log.txt"
        },
	"indice_mapping":["twit","twit"],
	"google_indice_mapping":["google","google"],
	"rss_indice_mapping": ["rss","rss"]
} 
